module example/finance-go

go 1.17

require (
	github.com/piquette/finance-go v1.0.0
	github.com/sirupsen/logrus v1.8.1
)

require (
	github.com/shopspring/decimal v1.3.1 // indirect
	golang.org/x/sys v0.0.0-20191026070338-33540a1f6037 // indirect
)
